/*********************************************************************************
# Copyright 2018-08 Observational Health Data Sciences and Informatics
#
#
# Licensed under the Apache License, Version 2.0 (the "License");
# you may not use this file except in compliance with the License.
# You may obtain a copy of the License at
#
#     http://www.apache.org/licenses/LICENSE-2.0
#
# Unless required by applicable law or agreed to in writing, software
# distributed under the License is distributed on an "AS IS" BASIS,
# WITHOUT WARRANTIES OR CONDITIONS OF ANY KIND, either express or implied.
# See the License for the specific language governing permissions and
# limitations under the License.
********************************************************************************/

/************************

 ####### #     # ####### ######      #####  ######  #     #            #####        ###
 #     # ##   ## #     # #     #    #     # #     # ##   ##    #    # #     #      #   #
 #     # # # # # #     # #     #    #       #     # # # # #    #    # #           #     #
 #     # #  #  # #     # ######     #       #     # #  #  #    #    # ######      #     #
 #     # #     # #     # #          #       #     # #     #    #    # #     # ### #     #
 #     # #     # #     # #          #     # #     # #     #     #  #  #     # ###  #   #
 ####### #     # ####### #           #####  ######  #     #      ##    #####  ###   ###

postgresql script to create OMOP common data model version 6.0

last revised: 27-Aug-2018

Authors:  Patrick Ryan, Christian Reich, Clair Blacketer


*************************/


/************************

Standardized vocabulary

************************/


--HINT DISTRIBUTE ON RANDOM
CREATE TABLE concept (
  row_id                          BIGSERIAL       NOT NULL,
  key                             TEXT        NULL,
  hash                            INT         NOT NULL,
  insert_datetime                 TIMESTAMP   NULL,
  update_datetime                 TIMESTAMP   NULL,
  delete_datetime                 TIMESTAMP   NULL,
  change_datetime                 TIMESTAMP   NOT NULL, -- added

  concept_id                      BIGINT      PRIMARY KEY,
  concept_name                    TEXT        NOT NULL,
  domain_id                       TEXT        NOT NULL,
  vocabulary_id                   TEXT        NULL,
  concept_class_id                TEXT        NULL,
  standard_concept                TEXT        NULL,
  concept_code                    TEXT        NOT NULL,
  valid_start_date                DATE        NOT NULL,
  valid_end_date                  DATE        NOT NULL,
  invalid_reason                  TEXT        NULL,
  m_language_id                   TEXT        NULL,
  m_project_id                    BIGINT      NULL
);


--HINT DISTRIBUTE ON RANDOM
CREATE TABLE vocabulary (
  row_id                          BIGSERIAL       NOT NULL,
  key                                   TEXT        NULL,
  hash                                  INT         NOT NULL,
  insert_datetime                       TIMESTAMP,
  update_datetime                       TIMESTAMP,
  delete_datetime                       TIMESTAMP,
  change_datetime                       TIMESTAMP   NOT NULL, -- added

  vocabulary_id                         TEXT        PRIMARY KEY,
  vocabulary_name                       TEXT        NOT NULL,
  vocabulary_reference                  TEXT        NULL,
  vocabulary_version                    TEXT        NULL,
  vocabulary_concept_id                 INT         NOT NULL
)
;


--HINT DISTRIBUTE ON RANDOM
CREATE TABLE domain (    
  row_id                          BIGSERIAL       NOT NULL,
  key                             TEXT         NULL,
  hash                            INT          NOT NULL,
  insert_datetime                 TIMESTAMP    NULL,
  update_datetime                 TIMESTAMP    NULL,
  delete_datetime                 TIMESTAMP    NULL,
  change_datetime                 TIMESTAMP    NOT NULL, -- added

  domain_id                       TEXT         PRIMARY KEY,
  domain_name                     TEXT         NOT NULL,
  domain_concept_id               INT          NOT NULL
)
;


--HINT DISTRIBUTE ON RANDOM
CREATE TABLE concept_class (
  row_id                          BIGSERIAL       NOT NULL,
  key                             TEXT         NULL,
  hash                            INT          NOT NULL,
  insert_datetime                 TIMESTAMP    NULL,
  update_datetime                 TIMESTAMP    NULL,
  delete_datetime                 TIMESTAMP    NULL,
  change_datetime                 TIMESTAMP    NOT NULL, -- added

  concept_class_id                TEXT         PRIMARY KEY,
  concept_class_name              TEXT         NOT NULL,
  concept_class_concept_id        INT          NOT NULL
)
;


--HINT DISTRIBUTE ON RANDOM
CREATE TABLE concept_relationship (
  row_id                          BIGSERIAL       NOT NULL,
  key                             TEXT         NULL,
  hash                            INT          NOT NULL,
  insert_datetime                 TIMESTAMP    NULL,
  update_datetime                 TIMESTAMP    NULL,
  delete_datetime                 TIMESTAMP    NULL,
  change_datetime                 TIMESTAMP    NOT NULL, -- added

  concept_id_1                    BIGINT       NOT NULL,
  concept_id_2                    BIGINT       NOT NULL,
  relationship_id                 TEXT         NOT NULL,
  valid_start_date                DATE         NOT NULL,
  valid_end_date                  DATE         NOT NULL,
  invalid_reason                  TEXT         NULL
  )
;


--HINT DISTRIBUTE ON RANDOM
CREATE TABLE relationship (    
  row_id                          BIGSERIAL       NOT NULL,
  key                             TEXT         NULL,
  hash                            INT          NOT NULL,
  insert_datetime                 TIMESTAMP    NULL,
  update_datetime                 TIMESTAMP    NULL,
  delete_datetime                 TIMESTAMP    NULL,
  change_datetime                 TIMESTAMP    NOT NULL, -- added

  relationship_id                 TEXT         PRIMARY KEY,
  relationship_name               TEXT         NOT NULL,
  is_hierarchical                 INT          NOT NULL, -- modified
  defines_ancestry                INT          NOT NULL, -- modified
  reverse_relationship_id         TEXT         NOT NULL,
  relationship_concept_id         INT          NOT NULL
)
;


--HINT DISTRIBUTE ON RANDOM
CREATE TABLE concept_synonym (
  row_id                          BIGSERIAL       NOT NULL,
  key                             TEXT         NULL,
  hash                            INT          NOT NULL,
  insert_datetime                 TIMESTAMP    NULL,
  update_datetime                 TIMESTAMP    NULL,
  delete_datetime                 TIMESTAMP    NULL, 
  change_datetime                 TIMESTAMP    NOT NULL, -- added

  concept_id                      BIGINT       NOT NULL,
  concept_synonym_name            TEXT         NOT NULL,
  language_concept_id             INT          NOT NULL
)
;




-- --HINT DISTRIBUTE ON RANDOM
-- CREATE TABLE drug_strength (
--   row_id                          BIGSERIAL       NOT NULL,
  key                             TEXT         NULL,
--   hash                            INT          NOT NULL,
--   insert_datetime                 TIMESTAMP    NULL,
--   update_datetime                 TIMESTAMP    NULL,
--   delete_datetime                 TIMESTAMP    NULL,
--   change_datetime                 TIMESTAMP    NOT NULL, -- added
-- 
--   drug_concept_id                 INT          NOT NULL,
--   ingredient_concept_id           INT          NOT NULL,
--   amount_value                    NUMERIC      NULL,
--   amount_unit_concept_id          INT          NULL,
--   numerator_value                 NUMERIC      NULL,
--   numerator_unit_concept_id       INT          NULL,
--   denominator_value               NUMERIC      NULL,
--   denominator_unit_concept_id     INT          NULL,
--   box_size                        BIGINT       NULL,
--   valid_start_date                DATE         NOT NULL,
--   valid_end_date                  DATE         NOT NULL,
--   invalid_reason                  TEXT         NULL
-- )
-- ;
-- 

-- --HINT DISTRIBUTE ON RANDOM
-- CREATE TABLE attribute_definition (
--   row_id                          BIGSERIAL       NOT NULL,
  key                             TEXT         NULL,
--   hash                            INT          NOT NULL,
--   insert_datetime                 TIMESTAMP    NULL,
--   update_datetime                 TIMESTAMP    NULL,
--   delete_datetime                 TIMESTAMP    NULL,
--   change_datetime                 TIMESTAMP    NOT NULL, -- added
-- 
--   attribute_definition_id         BIGINT       NOT NULL,
--   attribute_name                  TEXT         NOT NULL,
--   attribute_description           TEXT         NULL,
--   attribute_type_concept_id       INT          NOT NULL,
--   attribute_syntax                TEXT         NULL
-- )
-- ;
-- 

/**************************

Standardized meta-data

***************************/


-- --HINT DISTRIBUTE ON RANDOM
 CREATE TABLE cdm_source
 (
   row_id                          BIGSERIAL    NOT NULL,
   key                             TEXT         NULL,
   hash                            INT          NOT NULL,
   insert_datetime                 TIMESTAMP    NULL,
   update_datetime                 TIMESTAMP    NULL,
   delete_datetime                 TIMESTAMP    NULL,
   change_datetime                 TIMESTAMP    NOT NULL, -- added
 
   cdm_source_name                 TEXT         NOT NULL,
   cdm_source_abbreviation         TEXT         NULL,
   cdm_holder                      TEXT         NULL,
   source_description              TEXT         NULL,
   source_documentation_reference  TEXT         NULL,
   cdm_etl_reference               TEXT         NULL,
   source_release_date             DATE         NULL,
   cdm_release_date                DATE         NULL,
   cdm_version                     TEXT         NULL,
   vocabulary_version              TEXT         NULL
 )
 ;


-- --HINT DISTRIBUTE ON RANDOM
-- CREATE TABLE metadata
-- (
--   row_id                          BIGSERIAL       NOT NULL,
  key                             TEXT          NULL,
--   hash                            INT           NOT NULL,
--   insert_datetime                 TIMESTAMP     NULL,
--   update_datetime                 TIMESTAMP     NULL,
--   delete_datetime                 TIMESTAMP     NULL,
--   change_datetime                 TIMESTAMP     NOT NULL, -- added
-- 
--   metadata_concept_id             INT           NOT NULL,
--   metadata_type_concept_id        INT           NOT NULL,
--   name                            TEXT          NOT NULL,
--   value_as_string                 TEXT          NULL,
--   value_as_concept_id             INT           NULL,
--   metadata_date                   DATE          NULL,
--   metadata_datetime               TIMESTAMP     NULL
-- )
-- ;
-- 

--INSERT INTO metadata (metadata_concept_id, metadata_type_concept_id, name, value_as_string, value_as_concept_id, metadata_date, metadata_datetime)
--VALUES (0, 0, 'CDM Version', '6.0', 0, NULL, NULL,
--;


/************************

Standardized clinical data

************************/


--HINT DISTRIBUTE_ON_KEY(person_id)
CREATE TABLE person
(
  row_id                          BIGSERIAL       NOT NULL,
  key                                   TEXT         NULL,
  hash                                  INT          NOT NULL,
  insert_datetime                       TIMESTAMP    NULL,
  update_datetime                       TIMESTAMP    NULL,
  delete_datetime                       TIMESTAMP    NULL,
  change_datetime                       TIMESTAMP    NOT NULL, -- added

  person_id                             BIGINT       PRIMARY KEY, 
  person_source_value                   TEXT         NULL,
  location_id                           BIGINT       NULL,
  provider_id                           BIGINT       NULL,
  care_site_id                          BIGINT       NULL,
  year_of_birth                         BIGINT       NULL,
  month_of_birth                        BIGINT       NULL,
  day_of_birth                          BIGINT       NULL,
  birth_datetime                        TIMESTAMP    NULL,
  death_datetime                        TIMESTAMP    NULL,
  race_concept_id                       INT          NULL,
  race_source_value                     TEXT         NULL,
  race_source_concept_id                INT          NULL,
  ethnicity_concept_id                  INT          NULL,
  ethnicity_source_value                TEXT         NULL,
  ethnicity_source_concept_id           INT          NULL,
  gender_concept_id                     INT          NULL,
  gender_source_value                   TEXT         NULL,
  gender_source_concept_id              INT          NOT NULL,
  row_status_concept_id                 INT          NULL,   -- added
  row_status_source_value               TEXT         NULL,   -- added
  row_status_source_concept_id          INT          NULL,    -- added
  cdm_source                            TEXT         NULL    -- added

)
;


-- --HINT DISTRIBUTE_ON_KEY(person_id)
 CREATE TABLE specimen
 (
   row_id                          BIGSERIAL       NOT NULL,
   key                                 TEXT       NULL,
   hash                                BIGINT     NOT NULL,
   insert_datetime                     TIMESTAMP  NULL,
   update_datetime                     TIMESTAMP  NULL,
   delete_datetime                     TIMESTAMP  NULL,
   change_datetime                     TIMESTAMP  NOT NULL, -- added
 
   specimen_id                         BIGINT     PRIMARY KEY,
   person_id                           BIGINT     NOT NULL,
   visit_occurrence_id                 BIGINT     NOT NULL,   -- added
   visit_detail_id                     BIGINT     NULL,       -- added
   
   specimen_concept_id                 INT        NOT NULL,
   specimen_source_id                  TEXT       NULL,
   specimen_source_value               TEXT       NULL,
   specimen_type_concept_id            INT        NOT NULL,
   specimen_type_source_value          BIGINT     NOT NULL,   -- added
   specimen_type_source_concept_id     INT        NOT NULL,   -- added
   specimen_date                       DATE       NULL,
   specimen_datetime                   TIMESTAMP  NOT NULL,
   quantity                            NUMERIC    NULL,
   unit_concept_id                     INT        NULL,
   unit_source_concept_id              INT        NULL,       -- added
   unit_source_value                   TEXT       NULL,
   anatomic_site_concept_id            INT        NOT NULL,
   anatomic_site_source_concept_id     INT        NULL,       -- added
   anatomic_site_source_value          TEXT       NULL,
   disease_status_concept_id           INT        NOT NULL,
   disease_status_source_concept_id    INT        NULL,       -- added
   disease_status_source_value         TEXT       NULL,
   row_status_concept_id               INT        NULL,   -- added
   row_status_source_value             TEXT       NULL,   -- added
   row_status_source_concept_id        INT        NULL,    -- added
   cdm_source                          TEXT       NULL    -- added
 )
 ;


--HINT DISTRIBUTE_ON_KEY(person_id)
CREATE TABLE visit_occurrence
(
  row_id                          BIGSERIAL       NOT NULL,
  key                                   TEXT          NULL,
  hash                                  INT           NOT NULL,
  insert_datetime                       TIMESTAMP     NULL,
  update_datetime                       TIMESTAMP     NULL,
  delete_datetime                       TIMESTAMP     NULL,
  change_datetime                       TIMESTAMP     NOT NULL, -- added

  visit_occurrence_id                   BIGINT        PRIMARY KEY,
  visit_occurrence_source_value         TEXT          NULL, --added
  person_id                             BIGINT        NULL,
  preceding_visit_occurrence_id         BIGINT        NULL,
  provider_id                           BIGINT        NULL,
  care_site_id                          BIGINT        NULL,
  visit_start_date                      DATE          NULL,
  visit_start_datetime                  TIMESTAMP     NULL,
  visit_end_date                        DATE          NULL,
  visit_end_datetime                    TIMESTAMP     NULL,
  visit_concept_id                      INT           NULL,
  visit_source_value                    TEXT          NULL,
  visit_source_concept_id               INT           NULL,
  visit_type_concept_id                 INT           NULL,
  visit_type_source_value               TEXT          NULL,-- added
  visit_type_source_concept_id          INT           NULL,-- added
  admitted_from_concept_id              INT           NULL,   
  admitted_from_source_value            TEXT          NULL,
  admitted_from_source_concept_id       INT           NULL,-- added
  discharge_to_concept_id               INT           NULL,
  discharge_to_source_value             TEXT          NULL,
  discharge_to_source_concept_id        INT           NULL, -- added
  row_status_concept_id                 INT           NULL,   -- added
  row_status_source_value               TEXT          NULL,   -- added
  row_status_source_concept_id          INT           NULL,    -- added
  cdm_source                            TEXT          NULL    -- added
)
;


--HINT DISTRIBUTE_ON_KEY(person_id)
CREATE TABLE visit_detail
(
  row_id                          BIGSERIAL       NOT NULL,
  key                                        TEXT            NULL,
  hash                                       INT             NOT NULL,
  insert_datetime                            TIMESTAMP       NULL,
  update_datetime                            TIMESTAMP       NULL,
  delete_datetime                            TIMESTAMP       NULL,
  change_datetime                            TIMESTAMP       NOT NULL, -- added

  visit_detail_id                            BIGINT          PRIMARY KEY,
  person_id                                  BIGINT          NULL,
  visit_occurrence_id                        BIGINT          NULL,
  preceding_visit_detail_id                  BIGINT          NULL,
  visit_detail_parent_id                     BIGINT          NULL,
  provider_id                                BIGINT          NULL,
  care_site_id                               BIGINT          NULL,
  visit_detail_start_date                    DATE            NULL,
  visit_detail_start_datetime                TIMESTAMP       NULL,
  visit_detail_end_date                      DATE            NULL,
  visit_detail_end_datetime                  TIMESTAMP       NULL,
  visit_detail_concept_id                    INT             NULL,
  visit_detail_source_value                  TEXT            NULL,
  visit_detail_source_concept_id             INT             NULL,
  visit_detail_type_concept_id               INT             NULL,
  visit_detail_type_source_value             TEXT            NULL,
  visit_detail_type_source_concept_id        INT             NULL,-- added
  admitted_from_concept_id                   INT             NULL, 
  admitted_from_source_value                 TEXT            NULL,
  admitted_from_source_concept_id            INT             NULL, -- added
  discharge_to_concept_id                    INT             NULL,
  discharge_to_source_value                  TEXT            NULL,
  discharge_to_source_concept_id             INT             NULL, -- added
  row_status_concept_id                      INT             NULL,   -- added
  row_status_source_value                    TEXT            NULL,   -- added
  row_status_source_concept_id               INT             NULL,    -- added
  cdm_source                                 TEXT            NULL    -- added
)
;


--HINT DISTRIBUTE_ON_KEY(person_id)
CREATE TABLE procedure_occurrence
(
  row_id                          BIGSERIAL       NOT NULL,
  key                                      TEXT         NULL,
  hash                                     INT          NOT NULL,
  insert_datetime                          TIMESTAMP    NULL,
  update_datetime                          TIMESTAMP    NULL,
  delete_datetime                          TIMESTAMP    NULL,
  change_datetime                          TIMESTAMP    NOT NULL, -- added

  procedure_occurrence_id                  BIGINT       PRIMARY KEY,
  person_id                                BIGINT       NULL,
  visit_occurrence_id                      BIGINT       NULL,
  visit_detail_id                          BIGINT       NULL,
  provider_id                              BIGINT       NULL,
  procedure_date                           DATE         NULL,
  procedure_datetime                       TIMESTAMP    NULL,
  procedure_concept_id                     INT          NULL,
  procedure_source_value                   TEXT         NULL,
  procedure_source_concept_id              INT          NULL,
  procedure_type_concept_id                INT          NULL,
  procedure_type_source_value              TEXT         NULL,-- added
  procedure_type_source_concept_id         INT          NULL,-- added
  modifier_concept_id                      INT          NULL,
  modifier_source_value                    TEXT         NULL, 
  quantity                                 BIGINT       NULL,
  row_status_concept_id                    INT          NULL,   -- added
  row_status_source_value                  TEXT         NULL,   -- added
  row_status_source_concept_id             INT          NULL,    -- added
  cdm_source                               TEXT         NULL    -- added
);




--HINT DISTRIBUTE_ON_KEY(person_id)
CREATE TABLE condition_occurrence
(
  row_id                          BIGSERIAL       NOT NULL,
  key                                   TEXT         NULL,
  hash                                  INT          NOT NULL,
  insert_datetime                       TIMESTAMP    NULL,
  update_datetime                       TIMESTAMP    NULL,
  delete_datetime                       TIMESTAMP    NULL,
  change_datetime                       TIMESTAMP    NOT NULL, -- added

  condition_occurrence_id               BIGINT       PRIMARY KEY,
  person_id                             BIGINT       NULL,
  visit_occurrence_id                   BIGINT       NULL,
  visit_detail_id                       BIGINT       NULL,
  provider_id                           BIGINT       NULL,
  condition_start_date                  DATE         NULL,
  condition_start_datetime              TIMESTAMP    NULL,
  condition_end_date                    DATE         NULL,
  condition_end_datetime                TIMESTAMP    NULL,
  condition_concept_id                  INT          NULL,
  condition_source_value                TEXT         NULL,
  condition_source_concept_id           INT          NULL,
  condition_type_concept_id             INT          NULL,-- added
  condition_type_source_value           TEXT         NULL,
  condition_type_source_concept_id      INT          NULL,-- added
  condition_status_concept_id           INT          NULL,-- added
  condition_status_source_value         TEXT         NULL,-- added
  condition_status_source_concept_id    INT          NULL,-- added
  stop_reason                           TEXT         NULL,
  row_status_concept_id                 INT          NULL,   -- added
  row_status_source_value               TEXT         NULL,   -- added
  row_status_source_concept_id          INT          NULL,    -- added
  cdm_source                            TEXT         NULL    -- added
);


 --HINT DISTRIBUTE_ON_KEY(person_id)
 -- partitionning here
 -- https://fragland.dev/a-guide-to-table-partitioning-with-postgresql-12/
 CREATE TABLE measurement
 (
   row_id                               BIGSERIAL       NOT NULL,
   key                                  TEXT         NULL,
   hash                                 INT          NOT NULL,
   insert_datetime                      TIMESTAMP    NULL,
   update_datetime                      TIMESTAMP    NULL,
   delete_datetime                      TIMESTAMP    NULL,
   change_datetime                      TIMESTAMP    NOT NULL, -- added
 
   measurement_id                       BIGINT       NOT NULL, -- removed pk because of partitionning
   person_id                            BIGINT       NULL,
   provider_id                          BIGINT       NULL,
   visit_occurrence_id                  BIGINT       NULL,
   visit_detail_id                      BIGINT       NULL,
   measurement_date                     DATE         NULL,
   measurement_datetime                 TIMESTAMP    NULL,
   measurement_time                     TEXT         NULL,
   measurement_concept_id               INT          NULL,
   measurement_source_value             TEXT         NOT NULL,
   measurement_source_concept_id        INT          NOT NULL,
   measurement_type_concept_id          INT          NULL,
   measurement_type_source_value        TEXT       NOT NULL, -- added
   measurement_type_source_concept_id   INT          NULL, -- added
   operator_concept_id                  INT          NULL,
   operator_source_value                TEXT         NULL,
   operator_source_concept_id           INT          NULL,
   value_as_number                      NUMERIC      NULL,
   value_source_as_number               NUMERIC      NULL,-- added
   value_as_concept_id                  INT          NULL,
   value_source_as_concept_id           INT          NULL,-- added
   value_source_value                   TEXT         NULL,
   range_low                            NUMERIC      NULL,
   range_high                           NUMERIC      NULL,
   unit_concept_id                      INT          NULL,
   unit_source_value                    TEXT         NULL, -- added for consistency
   unit_source_concept_id               INT          NULL, -- added for consistency
   row_status_concept_id                INT          NULL,   -- added
   row_status_source_value              TEXT         NULL,   -- added
   row_status_source_concept_id         INT          NULL,    -- added
   cdm_source                           TEXT         NULL
 ) PARTITION BY LIST (measurement_type_source_value);

 CREATE TABLE measurement_labs PARTITION OF measurement
    FOR VALUES IN ('Laboratory');

 CREATE TABLE measurement_physio PARTITION OF measurement
    FOR VALUES IN ('Physiology');


--HINT DISTRIBUTE_ON_KEY(person_id)
CREATE TABLE note
(
  row_id                             BIGSERIAL    NOT NULL,
  key                                TEXT         NULL,
  hash                               BIGINT       NOT NULL,
  insert_datetime                    TIMESTAMP    NULL,
  update_datetime                    TIMESTAMP    NULL,
  delete_datetime                    TIMESTAMP    NULL,
  change_datetime                    TIMESTAMP    NOT NULL, -- added

  note_id                            BIGSERIAL    NOT NULL,
  note_source_value                  TEXT         NULL,
  person_id                          BIGINT       NULL,
  visit_occurrence_id                BIGINT       NULL,
  visit_detail_id                    BIGINT       NULL,
  provider_id                        BIGINT       NULL,
  care_site_id                       BIGINT       NULL,--added
  note_event_id                      BIGINT       NULL, 
  note_event_field_concept_id        INT          NULL, 
  note_date                          DATE         NULL,
  note_datetime                      TIMESTAMP    NULL,
  note_type_concept_id               INT          NULL,
  note_type_source_value             TEXT         NULL,
  note_type_source_concept_id        INT          NULL,
  note_class_concept_id              INT          NULL,
  note_class_source_concept_id       INT          NULL,
  note_class_source_value            TEXT         NULL,
  note_title                         TEXT         NULL,
  note_text                          TEXT         NULL,
  encoding_concept_id                INT          NULL,
  language_concept_id                INT          NULL,   -- added
  row_status_concept_id              INT          NULL,   -- added
  row_status_source_value            TEXT         NULL,   -- added
  row_status_source_concept_id       INT          NULL,   -- added
  is_pdf_available                   BOOLEAN      NULL,    -- added
  cdm_source                         TEXT         NULL    -- added
) PARTITION BY (note_type_source_value)
;

 CREATE TABLE note_section PARTITION OF note
    FOR VALUES IN ('Note Section');

 CREATE TABLE note_content PARTITION OF note
    FOR VALUES IN ('Note Content');

ALTER SEQUENCE note_note_id_seq START -1 INCREMENT -1 CACHE 1000 MINVALUE -1000000000000 RESTART -1;



--HINT DISTRIBUTE ON RANDOM
CREATE TABLE note_nlp
(
  row_id                          BIGSERIAL       NOT NULL,
  key                                 TEXT         NULL,
  hash                                INT          NOT NULL,
  insert_datetime                     TIMESTAMP    NULL,
  update_datetime                     TIMESTAMP    NULL,
  delete_datetime                     TIMESTAMP    NULL,
  change_datetime                     TIMESTAMP    NOT NULL, -- added

  note_nlp_id                         BIGINT       PRIMARY KEY,
  note_id                             BIGINT       NOT NULL,
  person_id                           BIGINT       NOT NULL,-- added
  visit_occurrence_id                 BIGINT       NULL,-- added
  visit_detail_id                     BIGINT       NULL,-- added
  provider_id                         BIGINT       NULL,-- added
  section_concept_id                  INT          NOT NULL,
  section_source_value                TEXT         NULL,                       
  section_source_concept_id           INT          NULL, 
  snippet                             TEXT         NULL,
  lexical_variant                     TEXT         NOT NULL,
  note_nlp_concept_id                 INT          NOT NULL,
  note_nlp_source_value               TEXT         NULL, 
  note_nlp_source_concept_id          INT          NOT NULL,
  nlp_system                          TEXT         NULL,
  nlp_date                            DATE         NOT NULL,
  nlp_datetime                        TIMESTAMP    NULL,
  term_exists                         TEXT         NULL,
  term_temporal                       TEXT         NULL,
  term_modifiers                      TEXT         NULL,
  offset_begin                        BIGINT       NULL,                     
  offset_end                          BIGINT       NULL,                     
  row_status_concept_id               INT          NULL,   -- added
  row_status_source_value             TEXT         NULL,   -- added
  row_status_source_concept_id        INT          NULL,    -- added
  cdm_source                          TEXT         NULL    -- added
)
;



--HINT DISTRIBUTE_ON_KEY(person_id)
CREATE TABLE observation
(
  row_id                          BIGSERIAL       NOT NULL,
  key                                      TEXT         NULL,
  hash                                     INT          NOT NULL,
  insert_datetime                          TIMESTAMP    NULL,
  update_datetime                          TIMESTAMP    NULL,
  delete_datetime                          TIMESTAMP    NULL,
  change_datetime                          TIMESTAMP    NOT NULL, -- added

  observation_id                           BIGSERIAL    PRIMARY KEY,
  person_id                                BIGINT       NOT NULL,
  visit_occurrence_id                      BIGINT       NULL,
  visit_detail_id                          BIGINT       NULL,
  provider_id                              BIGINT       NULL,
  observation_date                         DATE         NULL,
  observation_datetime                     TIMESTAMP    NULL,
  observation_concept_id                   INT          NULL,
  observation_source_value                 TEXT         NULL,
  observation_source_concept_id            INT          NULL,
  observation_type_concept_id              INT          NULL,
  observation_type_source_value            TEXT         NULL,-- added
  observation_type_source_concept_id       INT          NULL,-- added
  value_as_number                          NUMERIC      NULL,
  value_source_as_number                   NUMERIC      NULL,-- added
  value_as_string                          TEXT         NULL,
  value_as_concept_id                      INT          NULL,
  value_source_as_concept_id               INT          NULL,-- added
  value_as_datetime                        TIMESTAMP    NULL,
  value_source_value                       TEXT         NULL,
  qualifier_concept_id                     INT          NULL,
  qualifier_source_value                   TEXT         NULL,
  unit_concept_id                          INT          NULL,
  unit_source_value                        TEXT         NULL,
  unit_source_concept_id                   INT          NULL,-- added
  observation_event_id                     BIGINT       NULL, 
  obs_event_field_concept_id               INT          NULL,
  row_status_concept_id                    INT          NULL,   -- added
  row_status_source_value                  TEXT         NULL,   -- added
  row_status_source_concept_id             INT          NULL,    -- added
  cdm_source                               TEXT         NULL    -- added
)
;


-- --HINT DISTRIBUTE ON KEY(person_id)
-- CREATE TABLE survey_conduct 
-- (
--   row_id                          BIGSERIAL       NOT NULL,
  key                              TEXT         NULL,
--   hash                             INT          NOT NULL,
--   insert_datetime                  TIMESTAMP    NULL,
--   update_datetime                  TIMESTAMP    NULL,
--   delete_datetime                  TIMESTAMP    NULL,
--   change_datetime                  TIMESTAMP    NOT NULL, -- added
-- 
--   survey_conduct_id                BIGINT       NOT NULL,
--   person_id                        BIGINT       NOT NULL,
--   visit_occurrence_id              BIGINT       NULL,
--   visit_detail_id                  BIGINT       NULL,
--   survey_concept_id                INT          NOT NULL,
--   survey_start_date                DATE         NULL,
--   survey_start_datetime            TIMESTAMP    NULL,
--   survey_end_date                  DATE         NULL,
--   survey_end_datetime              TIMESTAMP    NOT NULL,
--   provider_id                      BIGINT       NULL,
--   assisted_concept_id              INT          NOT NULL,
--   respondent_type_concept_id       INT          NOT NULL,
--   timing_concept_id                INT          NOT NULL,
--   collection_method_concept_id     INT          NOT NULL,
--   assisted_source_value            TEXT         NULL,
--   respondent_type_source_value     TEXT         NULL,
--   timing_source_value              TEXT         NULL,
--   collection_method_source_value   TEXT         NULL,
--   survey_source_value              TEXT         NULL,
--   survey_source_concept_id         INT          NOT NULL,
--   survey_source_identifier         TEXT         NULL,
--   validated_survey_concept_id      INT          NOT NULL,
--   validated_survey_source_value    TEXT         NULL,
--   survey_version_number            TEXT         NULL,
--   response_visit_occurrence_id     BIGINT       NULL
-- )
-- ;


--HINT DISTRIBUTE ON RANDOM
CREATE TABLE fact_relationship
(
  row_id                          BIGSERIAL       NOT NULL,
  key                             TEXT          NULL,
  hash                            INT           NOT NULL,
  insert_datetime                 TIMESTAMP     NULL,
  update_datetime                 TIMESTAMP     NULL,
  delete_datetime                 TIMESTAMP     NULL,
  change_datetime                 TIMESTAMP     NOT NULL, -- added

  fact_relationship_id            BIGSERIAL     PRIMARY KEY,
  domain_concept_id_1             INT           NOT NULL,
  fact_id_1                       BIGINT        NOT NULL,
  domain_concept_id_2             INT           NOT NULL,
  fact_id_2                       BIGINT        NOT NULL,
  relationship_concept_id         INT           NOT NULL,
  cdm_source                      TEXT          NULL    -- added
)
;


-- --HINT DISTRIBUTE_ON_KEY(person_id)
 CREATE TABLE drug_exposure
 (
   row_id                                BIGSERIAL     NOT NULL,
   key                                   TEXT          NULL,
   hash                                  INT           NOT NULL,
   insert_datetime                       TIMESTAMP     NULL,
   update_datetime                       TIMESTAMP     NULL,
   delete_datetime                       TIMESTAMP     NULL,
   change_datetime                       TIMESTAMP     NOT NULL, -- added
 
   drug_exposure_id                      BIGINT        NOT NULL,
   person_id                             BIGINT        NOT NULL,
   provider_id                           BIGINT        NULL,
   visit_occurrence_id                   BIGINT        NULL,
   visit_detail_id                       BIGINT        NULL,
   drug_exposure_start_date              DATE          NULL,
   drug_exposure_start_datetime          TIMESTAMP     NOT NULL,
   drug_exposure_end_date                DATE          NULL,
   drug_exposure_end_datetime            TIMESTAMP     NOT NULL,
   verbatim_end_date                     DATE          NULL,
   drug_type_concept_id                  INT           NULL,
   drug_type_source_value                TEXT          NULL,
   drug_type_source_concept_id           INT           NULL,
   stop_reason                           TEXT          NULL,
   refills                               BIGINT        NULL,
   quantity                              NUMERIC       NULL,
   days_supply                           BIGINT        NULL,
   sig                                   TEXT          NULL,
   lot_number                            TEXT          NULL,
   drug_concept_id                       INT           NULL,
   drug_source_value                     TEXT          NULL,
   drug_source_concept_id                INT           NULL,
   route_concept_id                      INT           NULL,
   route_source_value                    TEXT          NULL,
   route_source_concept_id               INT           NULL,
   dose_unit_concept_id                  INT           NULL,
   dose_unit_source_value                TEXT          NULL,
   dose_unit_source_concept_id           INT           NULL,
   row_status_concept_id                 INT           NULL,   -- added
   row_status_source_value               TEXT          NULL,   -- added
   row_status_source_concept_id          INT           NULL,    -- added
   cdm_source                            TEXT          NULL    -- added
)
;


-- --HINT DISTRIBUTE_ON_KEY(person_id)
-- CREATE TABLE device_exposure
-- (
--   row_id                          BIGSERIAL       NOT NULL,
  key                                 TEXT         NULL,
--   hash                                INT          NOT NULL,
--   insert_datetime                     TIMESTAMP    NULL,
--   update_datetime                     TIMESTAMP    NULL,
--   delete_datetime                     TIMESTAMP    NULL,
--   change_datetime                     TIMESTAMP    NOT NULL, -- added
-- 
--   device_exposure_id                  BIGINT       NOT NULL,
--   person_id                           BIGINT       NOT NULL,
--   device_concept_id                   INT          NOT NULL,
--   device_exposure_start_date          DATE         NULL,
--   device_exposure_start_datetime      TIMESTAMP    NOT NULL,
--   device_exposure_end_date            DATE         NULL,
--   device_exposure_end_datetime        TIMESTAMP    NULL,
--   device_type_concept_id              INT          NOT NULL,
--   unique_device_id                    TEXT         NULL,
--   quantity                            BIGINT       NULL,
--   provider_id                         BIGINT       NULL,
--   visit_occurrence_id                 BIGINT       NULL,
--   visit_detail_id                     BIGINT       NULL,
--   device_source_value                 TEXT         NULL,
--   device_source_concept_id            INT          NOT NULL,
--   row_status_concept_id               INT          NULL,   -- added
--   row_status_source_value             TEXT         NULL,   -- added
--   row_status_source_concept_id        INT          NULL    -- added
-- )
-- ;

/************************

Standardized health system data

************************/


--HINT DISTRIBUTE ON RANDOM
CREATE TABLE location
(
  row_id                          BIGSERIAL       NOT NULL,
  key                         TEXT         NULL,
  hash                        INT          NOT NULL,
  insert_datetime             TIMESTAMP    NULL,
  update_datetime             TIMESTAMP    NULL,
  delete_datetime             TIMESTAMP    NULL,
  change_datetime             TIMESTAMP    NOT NULL, -- added

  location_id                 BIGINT       PRIMARY KEY,
  address                     TEXT         NULL,--added
  address_1                   TEXT         NULL,
  address_2                   TEXT         NULL,
  city                        TEXT         NULL,
  state                       TEXT         NULL,
  zip                         TEXT         NULL,
  county                      TEXT         NULL,
  country                     TEXT         NULL,
  location_source_value       TEXT         NULL,
  latitude                    NUMERIC      NULL,
  longitude                   NUMERIC      NULL,
  cdm_source                  TEXT         NULL    -- added
)
;


--HINT DISTRIBUTE ON RANDOM
CREATE TABLE location_history --Table added
(
  row_id                          BIGSERIAL       NOT NULL,
  key                               TEXT         NULL,
  hash                              INT          NOT NULL,
  insert_datetime                   TIMESTAMP    NULL,
  update_datetime                   TIMESTAMP    NULL,
  delete_datetime                   TIMESTAMP    NULL,
  change_datetime                   TIMESTAMP    NOT NULL, -- added


  location_history_id               BIGINT       PRIMARY KEY,
  location_id                       BIGINT       NOT NULL,
  relationship_type_concept_id      INT          NOT NULL, 
  domain_id                         TEXT         NOT NULL,
  entity_id                         BIGINT       NOT NULL,
  start_date                        DATE         NULL,
  end_date                          DATE         NULL,
  cdm_source                        TEXT         NULL    -- added
)
;


--HINT DISTRIBUTE ON RANDOM
CREATE TABLE care_site
(
 row_id                          BIGSERIAL       NOT NULL,
  key                                 TEXT           NULL, 
 hash                                INTEGER        NOT NULL, 
 insert_datetime                     TIMESTAMP      NULL, 
 update_datetime                     TIMESTAMP      NULL, 
 delete_datetime                     TIMESTAMP      NULL, 
 change_datetime                     TIMESTAMP      NOT NULL, 

 care_site_id                        BIGINT         PRIMARY KEY, 
 care_site_source_value              TEXT           NULL, 
 location_id                         BIGINT         NULL, 
 care_site_name                      TEXT           NULL, 
 care_site_short_name                TEXT           NULL, 
 place_of_service_concept_id         BIGINT         NULL, 
 place_of_service_source_value       TEXT           NULL, 
 place_of_service_source_concept_id  TEXT           NULL, 
 valid_start_date                    DATE           NULL, 
 valid_end_date                      DATE           NULL, 
 care_site_type_concept_id           INTEGER        NULL, 
 care_site_type_source_value         TEXT           NULL, 
 care_site_type_source_concept_id    INTEGER        NULL,
 cdm_source                          TEXT           NULL    -- added
)
;

--HINT DISTRIBUTE ON RANDOM
CREATE TABLE care_site_history --Table added
(
  row_id                          BIGSERIAL       NOT NULL,
  key                             TEXT          NULL,
  hash                            BIGINT        NOT NULL,
  insert_datetime                 TIMESTAMP     NULL,
  update_datetime                 TIMESTAMP     NULL,
  delete_datetime                 TIMESTAMP     NULL,
  change_datetime                 TIMESTAMP     NOT NULL, -- added

  care_site_history_id            BIGSERIAL     PRIMARY KEY,
  care_site_id                    BIGINT        NOT NULL,
  role_source_value               TEXT          NULL, --added
  role_source_id                  INTEGER       NULL, --added
  role_id                         INT           NOT NULL,
  relationship_type_concept_id    INT           NULL, 
  domain_id                       TEXT          NOT NULL,
  entity_id                       BIGINT        NOT NULL,
  start_date                      DATE          NULL,
  end_date                        DATE          NULL,
  cdm_source                      TEXT          NULL    -- added
)
;

CREATE TABLE role --Table added
(
  row_id                          BIGSERIAL       NOT NULL,
  key                                TEXT         NULL,
  hash                               BIGINT       NOT NULL,
  insert_datetime                    TIMESTAMP    NULL,
  update_datetime                    TIMESTAMP    NULL,
  delete_datetime                    TIMESTAMP    NULL,
  change_datetime                    TIMESTAMP    NOT NULL, -- added

  role_id                            INT          PRIMARY KEY,
  name                               TEXT         NULL,
  right_read_data_nominative         BOOLEAN      NULL,
  right_read_data_pseudo_anonymised  BOOLEAN      NULL,
  right_write_data                   BOOLEAN      NULL,
  right_read_users                   BOOLEAN      NULL, -- Read provider_roles...
  right_write_users                  BOOLEAN      NULL, -- Add provider_roles for example
  
  valid_start_date                   TIMESTAMP    NULL,
  valid_end_date                     TIMESTAMP    NULL,
  invalid_reason                     TEXT         NULL 
);


--HINT DISTRIBUTE ON RANDOM
CREATE TABLE provider
(
  row_id                          BIGSERIAL       NOT NULL,
  key                             TEXT         NULL,
  hash                            INT          NOT NULL,
  insert_datetime                 TIMESTAMP    NULL,
  update_datetime                 TIMESTAMP    NULL,
  delete_datetime                 TIMESTAMP    NULL,
  change_datetime                 TIMESTAMP    NOT NULL, -- added

  provider_id                     BIGINT       PRIMARY KEY,
  provider_name                   TEXT         NULL,
  provider_source_value           TEXT         NULL,
  NPI                             TEXT         NULL,
  DEA                             TEXT         NULL,
  care_site_id                    BIGINT       NULL,
  year_of_birth                   BIGINT       NULL,
  birth_date                      TIMESTAMP    NULL,--added
  gender_concept_id               INT          NULL,
  gender_source_value             TEXT         NULL,
  gender_source_concept_id        INT          NULL,
  specialty_concept_id            INT          NULL,
  specialty_source_value          TEXT         NULL,
  specialty_source_concept_id     INT          NULL,
  email                           TEXT         NULL,-- added
  is_active                       BOOLEAN      NULL,-- added
  firstname                       TEXT         NULL,-- added
  lastname                        TEXT         NULL,-- added
  auth_type                       TEXT         NULL,-- added
  password                        TEXT         NULL,-- added
  last_login_datetime             TIMESTAMP    NULL,-- added
  valid_start_datetime            TIMESTAMP    NULL,-- added
  valid_end_datetime              TIMESTAMP    NULL,-- added
  invalid_reason                  TEXT         NULL,-- added
  creation_datetime               TIMESTAMP    NULL,-- added
  modified_datetime               TIMESTAMP    NULL,-- added
  cdm_source                      TEXT         NULL    -- added
)
;



/************************

Standardized health economics

************************/


-- --HINT DISTRIBUTE_ON_KEY(person_id)
-- CREATE TABLE payer_plan_period
-- (
--   payer_plan_period_id                  BIGINT        NOT NULL,
--   person_id                             BIGINT        NOT NULL,
--   contract_person_id                    BIGINT        NULL,
--   payer_plan_period_start_date          DATE          NOT NULL,
--   payer_plan_period_end_date            DATE          NOT NULL,
--   payer_concept_id                      INT           NOT NULL,
--   plan_concept_id                       INT           NOT NULL,
--   contract_concept_id                   INT           NOT NULL,
--   sponsor_concept_id                    INT           NOT NULL,
--   stop_reason_concept_id                INT           NOT NULL,
--   payer_source_value                    TEXT          NULL,
--   payer_source_concept_id               INT           NOT NULL,
--   plan_source_value                     TEXT          NULL,
--   plan_source_concept_id                INT           NOT NULL,
--   contract_source_value                 TEXT          NULL,
--   contract_source_concept_id            INT           NOT NULL,
--   sponsor_source_value                  TEXT          NULL,
--   sponsor_source_concept_id             INT           NOT NULL,
--   family_source_value                   TEXT          NULL,
--   stop_reason_source_value              TEXT          NULL,
--   stop_reason_source_concept_id         INT           NOT NULL
-- )
-- ;


--HINT DISTRIBUTE ON KEY(person_id)
CREATE TABLE cost
(
  row_id                          BIGSERIAL       NOT NULL,
  key                                 TEXT          NULL,
  hash                                INT           NOT NULL,
  insert_datetime                     TIMESTAMP     NULL,
  update_datetime                     TIMESTAMP     NULL,
  delete_datetime                     TIMESTAMP     NULL,
  change_datetime                     TIMESTAMP     NOT NULL, -- added

  cost_id                             BIGINT        PRIMARY KEY,
  person_id                           BIGINT        NULL,
  cost_event_id                       BIGINT        NULL,
  cost_event_field_concept_id         INT           NULL, 
  cost_concept_id                     INT           NULL,
  cost_source_value                   TEXT          NULL,
  cost_source_concept_id              INT           NULL,
  cost_type_concept_id                INT           NULL,
  cost_type_source_value              TEXT          NULL,
  cost_type_source_concept_id         INT           NULL,
  currency_concept_id                 INT           NULL,
  cost                                DOUBLE PRECISION       NULL,
  incurred_date                       DATE          NULL,
  incurred_datetime                   DATE          NULL,
  billed_date                         DATE          NULL,
  paid_date                           DATE          NULL,
  revenue_code_concept_id             INT           NULL,
  drg_concept_id                      INT           NULL,
  drg_source_value                    TEXT          NULL,
  drg_source_concept_id               INT           NULL,
  revenue_code_source_value           TEXT          NULL,
  payer_plan_period_id                BIGINT        NULL,
  row_status_concept_id               INT           NULL,   -- added
  row_status_source_value             TEXT          NULL,   -- added
  row_status_source_concept_id        INT           NULL,    -- added
  cdm_source                          TEXT          NULL    -- added
)
;



/************************

Standardized derived elements

************************/


--HINT DISTRIBUTE_ON_KEY(person_id)
CREATE TABLE drug_era
(
  drug_era_id                 BIGINT        NOT NULL,
  person_id                   BIGINT        NOT NULL,
  drug_concept_id             INT           NOT NULL,
  drug_era_start_datetime     TIMESTAMP     NOT NULL,
  drug_era_end_datetime       TIMESTAMP     NOT NULL,
  drug_exposure_count         BIGINT        NULL,
  gap_days                    BIGINT        NULL
)
;


-- --HINT DISTRIBUTE_ON_KEY(person_id)
-- CREATE TABLE dose_era
-- (
--   dose_era_id                    BIGINT        NOT NULL,
--   person_id                      BIGINT        NOT NULL,
--   drug_concept_id                INT           NOT NULL,
--   unit_concept_id                INT           NOT NULL,
--   dose_value                     NUMERIC       NOT NULL,
--   dose_era_start_datetime        TIMESTAMP     NOT NULL,
--   dose_era_end_datetime          TIMESTAMP     NOT NULL
-- )
-- ;


-- --HINT DISTRIBUTE_ON_KEY(person_id)
-- CREATE TABLE condition_era
-- (
--   condition_era_id                BIGINT        NOT NULL,
--   person_id                       BIGINT        NOT NULL,
--   condition_concept_id            INT           NOT NULL,
--   condition_era_start_datetime    TIMESTAMP     NOT NULL,
--   condition_era_end_datetime      TIMESTAMP     NOT NULL,
--   condition_occurrence_count      BIGINT        NULL
-- )
-- ;

-- --HINT DISTRIBUTE_ON_KEY(person_id)
-- CREATE TABLE observation_period
-- (
--   row_id                          BIGSERIAL       NOT NULL,
  key                             TEXT         NULL,
--   hash                            INT          NOT NULL,
--   insert_datetime                 TIMESTAMP    NULL,
--   update_datetime                 TIMESTAMP    NULL,
--   delete_datetime                 TIMESTAMP    NULL,
--   change_datetime                 TIMESTAMP    NOT NULL, -- added
-- 
--   observation_period_id           BIGINT       NOT NULL,
--   person_id                       BIGINT       NOT NULL,
--   observation_period_start_date   DATE         NOT NULL,
--   observation_period_end_date     DATE         NOT NULL,
--   period_type_concept_id          INT          NOT NULL
-- )
-- ;

-- --HINT DISTRIBUTE ON RANDOM
-- CREATE TABLE concept_ancestor (
--   row_id                          BIGSERIAL       NOT NULL,
  key                             TEXT         NULL,
--   hash                            INT          NOT NULL,
--   insert_datetime                 TIMESTAMP    NULL,
--   update_datetime                 TIMESTAMP    NULL,
--   delete_datetime                 TIMESTAMP    NULL,
--   change_datetime                 TIMESTAMP    NOT NULL, -- added
-- 
--   ancestor_concept_id             INT          NOT NULL,
--   descendant_concept_id           INT          NOT NULL,
--   min_levels_of_separation        BIGINT       NOT NULL,
--   max_levels_of_separation        BIGINT       NOT NULL
-- )
-- ;

-- --HINT DISTRIBUTE ON RANDOM
-- CREATE TABLE source_to_concept_map (
--   row_id                          BIGSERIAL       NOT NULL,
  key                             TEXT         NULL,
--   hash                            INT          NOT NULL,
--   insert_datetime                 TIMESTAMP    NULL,
--   update_datetime                 TIMESTAMP    NULL,
--   delete_datetime                 TIMESTAMP    NULL,
--   change_datetime                 TIMESTAMP    NOT NULL, -- added
-- 
--   source_concept_id               INT          NOT NULL,
--   source_code                     TEXT         NOT NULL,
--   source_code_description         TEXT         NULL,
--   source_vocabulary_id            TEXT         NOT NULL,
--   source_domain_id                TEXT         NOT NULL, --added
--   source_vocabulary_reference     TEXT         NOT NULL, --added
--   source_standard_concept         TEXT         NOT NULL, --added
--   target_concept_id               INT          NOT NULL,
--   target_code                     TEXT         NOT NULL, --added
--   target_vocabulary_id            TEXT         NOT NULL,
--   target_domain_id                TEXT         NOT NULL, --added
--   target_vocabulary_reference     TEXT         NOT NULL, --added
--   target_standard_concept         TEXT         NOT NULL, --added
--   valid_start_date                DATE         NOT NULL,
--   valid_end_date                  DATE         NOT NULL,
--   invalid_reason                  TEXT         NULL
-- )
-- ;



CREATE TABLE cohort_definition (
  row_id                                  BIGSERIAL      NOT NULL,
  key                                     TEXT           NULL,
  hash                                    INT            NOT NULL,
  insert_datetime                         TIMESTAMP      NULL,
  update_datetime                         TIMESTAMP      NULL,
  delete_datetime                         TIMESTAMP      NULL,
  change_datetime                         TIMESTAMP      NOT NULL, -- added

  cohort_definition_id                    BIGSERIAL      PRIMARY KEY,
  cohort_definition_source_value          TEXT           NULL,
  cohort_definition_name                  TEXT           NULL,
  cohort_definition_description           TEXT           NULL,
  definition_type_concept_id              INTEGER        NULL,
  cohort_definition_syntax                TEXT           NULL,
  subject_concept_id                      INTEGER        NULL,
  subject_source_concept_id               INTEGER        NULL,
  cohort_initiation_datetime              TIMESTAMP      NULL,
  owner_entity_id                         BIGINT         NULL,--added
  owner_domain_id                         TEXT           NULL,--added
  cohort_size                             INTEGER        NULL,
  valid_start_datetime                    TIMESTAMP      NULL,
  valid_end_datetime                      TIMESTAMP      NULL,
  invalid_reason                          TEXT           NULL
)
;

CREATE TABLE cohort
(
  row_id                          BIGSERIAL     NOT NULL,
  key                             TEXT          NULL,
  hash                            INT           NOT NULL,
  insert_datetime                 TIMESTAMP     NULL,
  update_datetime                 TIMESTAMP     NULL,
  delete_datetime                 TIMESTAMP     NULL,
  change_datetime                 TIMESTAMP     NOT NULL, -- added

  cohort_id                       BIGSERIAL     PRIMARY KEY,
  cohort_definition_id            BIGINT        NULL,
  subject_id                      BIGINT        NULL,
  cohort_start_datetime           TIMESTAMP     NULL,
  cohort_end_datetime             TIMESTAMP     NULL,
  invalid_reason                  TEXT          NULL
);



CREATE TABLE concept_fhir (
  row_id                           BIGSERIAL    NOT NULL,
  key                              TEXT         NULL,
  hash                             INT          NOT NULL,
  insert_datetime                  TIMESTAMP    NULL,
  update_datetime                  TIMESTAMP    NULL,
  delete_datetime                  TIMESTAMP    NULL,
  change_datetime                  TIMESTAMP    NOT NULL, -- added

  concept_id                       INT          PRIMARY KEY,
  concept_code                     TEXT         NULL,
  concept_name                     TEXT         NULL,  
  vocabulary_reference             TEXT         NULL,  
  fhir_concept_code                TEXT         NULL,  
  fhir_concept_name                TEXT         NULL,  
  fhir_vocabulary_reference        TEXT         NULL
);

CREATE TABLE job_definition (
  row_id                           BIGSERIAL    NOT NULL,
  key                              TEXT         NULL,
  hash                             INT          NOT NULL,
  insert_datetime                  TIMESTAMP    NULL,
  update_datetime                  TIMESTAMP    NULL,
  delete_datetime                  TIMESTAMP    NULL,
  change_datetime                  TIMESTAMP    NOT NULL, -- added

  job_definition_id                BIGSERIAL    PRIMARY KEY,
  job_type_id              	   TEXT      NOT NULL,   
  provider_id                      INTEGER      NOT NULL,   
  status_id                	   TEXT              ,   
  job_size                         INTEGER                 
);

CREATE TABLE job (
  row_id                           BIGSERIAL    NOT NULL,
  key                              TEXT         NULL,
  hash                             INT          NOT NULL,
  insert_datetime                  TIMESTAMP    NULL,
  update_datetime                  TIMESTAMP    NULL,
  delete_datetime                  TIMESTAMP    NULL,
  change_datetime                  TIMESTAMP    NOT NULL, -- added

  job_id                           BIGSERIAL   PRIMARY KEY,
  job_definition_id                BIGINT      NOT NULL,   
  entity_id                        BIGINT      NOT NULL
  domain_id                        TEXT      NOT NULL
);
